<svg width="30" height="30" viewBox="0 0 30 30" fill="none" xmlns="http://www.w3.org/2000/svg">
<path fill-rule="evenodd" clip-rule="evenodd" d="M13.75 3.81934V9.93509C12.9912 9.85579 12.2496 9.70463 11.544 9.48544C10.4544 9.14694 9.48283 8.65629 8.67894 8.05337C8.15014 7.65677 7.70426 7.21954 7.345 6.75662C9.06597 5.15788 11.2883 4.09146 13.75 3.81934ZM16.25 3.81934V9.93509C17.0088 9.85579 17.7504 9.70463 18.456 9.48544C19.5456 9.14694 20.5172 8.65629 21.3211 8.05337C21.8499 7.65677 22.2958 7.21954 22.655 6.75662C20.934 5.15788 18.7117 4.09146 16.25 3.81934ZM24.3081 8.68028C23.872 9.17975 23.373 9.63945 22.8211 10.0534C21.7678 10.8433 20.5346 11.4576 19.1977 11.8729C18.2501 12.1673 17.2581 12.3594 16.25 12.4463V13.7501L26.1813 13.7501C25.975 11.8847 25.3126 10.1567 24.3081 8.68028ZM26.1814 16.2501L16.25 16.2501V17.5538C17.2581 17.6408 18.2501 17.8329 19.1977 18.1272C20.5346 18.5426 21.7678 19.1568 22.8211 19.9468C23.3732 20.3608 23.8724 20.8207 24.3085 21.3204C25.313 19.8438 25.9753 18.1156 26.1814 16.2501ZM22.6556 23.2442C22.2962 22.781 21.8501 22.3436 21.3211 21.9468C20.5172 21.3438 19.5456 20.8532 18.456 20.5147C17.7504 20.2955 17.0088 20.1443 16.25 20.065V26.182C18.712 25.9099 20.9345 24.8432 22.6556 23.2442ZM13.75 26.182V20.065C12.9912 20.1443 12.2496 20.2955 11.544 20.5147C10.4544 20.8532 9.48283 21.3438 8.67894 21.9468C8.14988 22.3436 7.70381 22.781 7.34445 23.2442C9.0655 24.8432 11.288 25.9099 13.75 26.182ZM5.69149 21.3204C6.12763 20.8207 6.62686 20.3608 7.17894 19.9468C8.23222 19.1568 9.46543 18.5426 10.8023 18.1272C11.75 17.8329 12.7419 17.6408 13.75 17.5538V16.2501L3.8186 16.2501C4.02473 18.1156 4.68703 19.8438 5.69149 21.3204ZM3.81874 13.7501L13.75 13.7501V12.4463C12.7419 12.3594 11.75 12.1673 10.8023 11.8729C9.46543 11.4576 8.23222 10.8433 7.17894 10.0534C6.62706 9.63945 6.12799 9.17975 5.69196 8.68028C4.68745 10.1567 4.02505 11.8847 3.81874 13.7501Z" fill="white"/>
</svg>
